t2a_uart/uart_tx/simulation/modelsim/msim_transcript
# do uart_tx_run_msim_rtl_verilog.do
# if {[file exists rtl_work]} {
# 	vdel -lib rtl_work -all
# }
# vlib rtl_work
# vmap work rtl_work
# Model Technology ModelSim - Intel FPGA Edition vmap 2020.1 Lib Mapping Utility 2020.02 Feb 28 2020
# vmap work rtl_work 
# Copying /home/maruthi/intelFPGA_lite/20.1/modelsim_ase/linuxaloem/../modelsim.ini to modelsim.ini
# Modifying modelsim.ini
# 
# vlog -vlog01compat -work work +incdir+/home/maruthi/intelFPGA_lite/20.1/quartus/t2a_uart/uart_tx/code {/home/maruthi/intelFPGA_lite/20.1/quartus/t2a_uart/uart_tx/code/uart_tx.v}
# Model Technology ModelSim - Intel FPGA Edition vlog 2020.1 Compiler 2020.02 Feb 28 2020
# Start time: 19:19:06 on Jul 22,2025
# vlog -reportprogress 300 -vlog01compat -work work "+incdir+/home/maruthi/intelFPGA_lite/20.1/quartus/t2a_uart/uart_tx/code" /home/maruthi/intelFPGA_lite/20.1/quartus/t2a_uart/uart_tx/code/uart_tx.v 
# -- Compiling module uart_tx
# 
# Top level modules:
# 	uart_tx
# End time: 19:19:06 on Jul 22,2025, Elapsed time: 0:00:00
# Errors: 0, Warnings: 0
# 
# vlog -vlog01compat -work work +incdir+/home/maruthi/intelFPGA_lite/20.1/quartus/t2a_uart/uart_tx/.test {/home/maruthi/intelFPGA_lite/20.1/quartus/t2a_uart/uart_tx/.test/tb.v}
# Model Technology ModelSim - Intel FPGA Edition vlog 2020.1 Compiler 2020.02 Feb 28 2020
# Start time: 19:19:06 on Jul 22,2025
# vlog -reportprogress 300 -vlog01compat -work work "+incdir+/home/maruthi/intelFPGA_lite/20.1/quartus/t2a_uart/uart_tx/.test" /home/maruthi/intelFPGA_lite/20.1/quartus/t2a_uart/uart_tx/.test/tb.v 
# -- Compiling module tb
# 
# Top level modules:
# 	tb
# End time: 19:19:06 on Jul 22,2025, Elapsed time: 0:00:00
# Errors: 0, Warnings: 0
# 
# vsim -t 1ps -L altera_ver -L lpm_ver -L sgate_ver -L altera_mf_ver -L altera_lnsim_ver -L cycloneive_ver -L rtl_work -L work -voptargs="+acc"  tb
# vsim -t 1ps -L altera_ver -L lpm_ver -L sgate_ver -L altera_mf_ver -L altera_lnsim_ver -L cycloneive_ver -L rtl_work -L work -voptargs=""+acc"" tb 
# Start time: 19:19:06 on Jul 22,2025
# Loading work.tb
# Loading work.uart_tx
# 
# add wave *
# view structure
# .main_pane.structure.interior.cs.body.struct
# view signals
# .main_pane.objects.interior.cs.body.tree
# run 500000 ns
# Time: 480000 | State: S_START | clk_counter = 0, bit_counter = 0, tx = 0
# Time: 800000 | State: S_START | clk_counter = 1, bit_counter = 0, tx = 0
# Time: 1120000 | State: S_START | clk_counter = 2, bit_counter = 0, tx = 0
# Time: 1440000 | State: S_START | clk_counter = 3, bit_counter = 0, tx = 0
# Time: 1760000 | State: S_START | clk_counter = 4, bit_counter = 0, tx = 0
# Time: 2080000 | State: S_START | clk_counter = 5, bit_counter = 0, tx = 0
# Time: 2400000 | State: S_START | clk_counter = 6, bit_counter = 0, tx = 0
# Time: 2720000 | State: S_START | clk_counter = 7, bit_counter = 0, tx = 0
# Time: 3040000 | State: S_START | clk_counter = 8, bit_counter = 0, tx = 0
# Time: 3360000 | State: S_START | clk_counter = 9, bit_counter = 0, tx = 0
# Time: 3680000 | State: S_START | clk_counter = 10, bit_counter = 0, tx = 0
# Time: 4000000 | State: S_START | clk_counter = 11, bit_counter = 0, tx = 0
# Time: 4320000 | State: S_START | clk_counter = 12, bit_counter = 0, tx = 0
# Time: 4640000 | State: S_START | clk_counter = 13, bit_counter = 0, tx = 0
# Time: 4960000 | State: S_DONE | clk_counter = 0, bit_counter = 7, tx = 0
# Time: 5280000 | State: S_DONE | clk_counter = 1, bit_counter = 7, tx = 0
# Time: 5600000 | State: S_DONE | clk_counter = 2, bit_counter = 7, tx = 0
# Time: 5920000 | State: S_DONE | clk_counter = 3, bit_counter = 7, tx = 0
# Time: 6240000 | State: S_DONE | clk_counter = 4, bit_counter = 7, tx = 0
# Time: 6560000 | State: S_DONE | clk_counter = 5, bit_counter = 7, tx = 0
# Time: 6880000 | State: S_DONE | clk_counter = 6, bit_counter = 7, tx = 0
# Time: 7200000 | State: S_DONE | clk_counter = 7, bit_counter = 7, tx = 0
# Time: 7520000 | State: S_DONE | clk_counter = 8, bit_counter = 7, tx = 0
# Time: 7840000 | State: S_DONE | clk_counter = 9, bit_counter = 7, tx = 0
# Time: 8160000 | State: S_DONE | clk_counter = 10, bit_counter = 7, tx = 0
# Time: 8480000 | State: S_DONE | clk_counter = 11, bit_counter = 7, tx = 0
# Time: 8800000 | State: S_DONE | clk_counter = 12, bit_counter = 7, tx = 0
# Time: 9120000 | State: S_DONE | clk_counter = 13, bit_counter = 7, tx = 0
# Time: 9440000 | State: S_DONE | clk_counter = 0, bit_counter = 6, tx = 1
# Time: 9760000 | State: S_DONE | clk_counter = 1, bit_counter = 6, tx = 1
# Time: 10080000 | State: S_DONE | clk_counter = 2, bit_counter = 6, tx = 1
# Time: 10400000 | State: S_DONE | clk_counter = 3, bit_counter = 6, tx = 1
# Time: 10720000 | State: S_DONE | clk_counter = 4, bit_counter = 6, tx = 1
# Time: 11040000 | State: S_DONE | clk_counter = 5, bit_counter = 6, tx = 1
# Time: 11360000 | State: S_DONE | clk_counter = 6, bit_counter = 6, tx = 1
# Time: 11680000 | State: S_DONE | clk_counter = 7, bit_counter = 6, tx = 1
# Time: 12000000 | State: S_DONE | clk_counter = 8, bit_counter = 6, tx = 1
# Time: 12320000 | State: S_DONE | clk_counter = 9, bit_counter = 6, tx = 1
# Time: 12640000 | State: S_DONE | clk_counter = 10, bit_counter = 6, tx = 1
# Time: 12960000 | State: S_DONE | clk_counter = 11, bit_counter = 6, tx = 1
# Time: 13280000 | State: S_DONE | clk_counter = 12, bit_counter = 6, tx = 1
# Time: 13600000 | State: S_DONE | clk_counter = 13, bit_counter = 6, tx = 1
# Time: 13920000 | State: S_DONE | clk_counter = 0, bit_counter = 5, tx = 1
# Time: 14240000 | State: S_DONE | clk_counter = 1, bit_counter = 5, tx = 1
# Time: 14560000 | State: S_DONE | clk_counter = 2, bit_counter = 5, tx = 1
# Time: 14880000 | State: S_DONE | clk_counter = 3, bit_counter = 5, tx = 1
# Time: 15200000 | State: S_DONE | clk_counter = 4, bit_counter = 5, tx = 1
# Time: 15520000 | State: S_DONE | clk_counter = 5, bit_counter = 5, tx = 1
# Time: 15840000 | State: S_DONE | clk_counter = 6, bit_counter = 5, tx = 1
# Time: 16160000 | State: S_DONE | clk_counter = 7, bit_counter = 5, tx = 1
# Time: 16480000 | State: S_DONE | clk_counter = 8, bit_counter = 5, tx = 1
# Time: 16800000 | State: S_DONE | clk_counter = 9, bit_counter = 5, tx = 1
# Time: 17120000 | State: S_DONE | clk_counter = 10, bit_counter = 5, tx = 1
# Time: 17440000 | State: S_DONE | clk_counter = 11, bit_counter = 5, tx = 1
# Time: 17760000 | State: S_DONE | clk_counter = 12, bit_counter = 5, tx = 1
# Time: 18080000 | State: S_DONE | clk_counter = 13, bit_counter = 5, tx = 1
# Time: 18400000 | State: S_DONE | clk_counter = 0, bit_counter = 4, tx = 0
# Time: 18720000 | State: S_DONE | clk_counter = 1, bit_counter = 4, tx = 0
# Time: 19040000 | State: S_DONE | clk_counter = 2, bit_counter = 4, tx = 0
# Time: 19360000 | State: S_DONE | clk_counter = 3, bit_counter = 4, tx = 0
# Time: 19680000 | State: S_DONE | clk_counter = 4, bit_counter = 4, tx = 0
# Time: 20000000 | State: S_DONE | clk_counter = 5, bit_counter = 4, tx = 0
# Time: 20320000 | State: S_DONE | clk_counter = 6, bit_counter = 4, tx = 0
# Time: 20640000 | State: S_DONE | clk_counter = 7, bit_counter = 4, tx = 0
# Time: 20960000 | State: S_DONE | clk_counter = 8, bit_counter = 4, tx = 0
# Time: 21280000 | State: S_DONE | clk_counter = 9, bit_counter = 4, tx = 0
# Time: 21600000 | State: S_DONE | clk_counter = 10, bit_counter = 4, tx = 0
# Time: 21920000 | State: S_DONE | clk_counter = 11, bit_counter = 4, tx = 0
# Time: 22240000 | State: S_DONE | clk_counter = 12, bit_counter = 4, tx = 0
# Time: 22560000 | State: S_DONE | clk_counter = 13, bit_counter = 4, tx = 0
# Time: 22880000 | State: S_DONE | clk_counter = 0, bit_counter = 3, tx = 0
# Time: 23200000 | State: S_DONE | clk_counter = 1, bit_counter = 3, tx = 0
# Time: 23520000 | State: S_DONE | clk_counter = 2, bit_counter = 3, tx = 0
# Time: 23840000 | State: S_DONE | clk_counter = 3, bit_counter = 3, tx = 0
# Time: 24160000 | State: S_DONE | clk_counter = 4, bit_counter = 3, tx = 0
# Time: 24480000 | State: S_DONE | clk_counter = 5, bit_counter = 3, tx = 0
# Time: 24800000 | State: S_DONE | clk_counter = 6, bit_counter = 3, tx = 0
# Time: 25120000 | State: S_DONE | clk_counter = 7, bit_counter = 3, tx = 0
# Time: 25440000 | State: S_DONE | clk_counter = 8, bit_counter = 3, tx = 0
# Time: 25760000 | State: S_DONE | clk_counter = 9, bit_counter = 3, tx = 0
# Time: 26080000 | State: S_DONE | clk_counter = 10, bit_counter = 3, tx = 0
# Time: 26400000 | State: S_DONE | clk_counter = 11, bit_counter = 3, tx = 0
# Time: 26720000 | State: S_DONE | clk_counter = 12, bit_counter = 3, tx = 0
# Time: 27040000 | State: S_DONE | clk_counter = 13, bit_counter = 3, tx = 0
# Time: 27360000 | State: S_DONE | clk_counter = 0, bit_counter = 2, tx = 1
# Time: 27680000 | State: S_DONE | clk_counter = 1, bit_counter = 2, tx = 1
# Time: 28000000 | State: S_DONE | clk_counter = 2, bit_counter = 2, tx = 1
# Time: 28320000 | State: S_DONE | clk_counter = 3, bit_counter = 2, tx = 1
# Time: 28640000 | State: S_DONE | clk_counter = 4, bit_counter = 2, tx = 1
# Time: 28960000 | State: S_DONE | clk_counter = 5, bit_counter = 2, tx = 1
# Time: 29280000 | State: S_DONE | clk_counter = 6, bit_counter = 2, tx = 1
# Time: 29600000 | State: S_DONE | clk_counter = 7, bit_counter = 2, tx = 1
# Time: 29920000 | State: S_DONE | clk_counter = 8, bit_counter = 2, tx = 1
# Time: 30240000 | State: S_DONE | clk_counter = 9, bit_counter = 2, tx = 1
# Time: 30560000 | State: S_DONE | clk_counter = 10, bit_counter = 2, tx = 1
# Time: 30880000 | State: S_DONE | clk_counter = 11, bit_counter = 2, tx = 1
# Time: 31200000 | State: S_DONE | clk_counter = 12, bit_counter = 2, tx = 1
# Time: 31520000 | State: S_DONE | clk_counter = 13, bit_counter = 2, tx = 1
# Time: 31840000 | State: S_DONE | clk_counter = 0, bit_counter = 1, tx = 0
# Time: 32160000 | State: S_DONE | clk_counter = 1, bit_counter = 1, tx = 0
# Time: 32480000 | State: S_DONE | clk_counter = 2, bit_counter = 1, tx = 0
# Time: 32800000 | State: S_DONE | clk_counter = 3, bit_counter = 1, tx = 0
# Time: 33120000 | State: S_DONE | clk_counter = 4, bit_counter = 1, tx = 0
# Time: 33440000 | State: S_DONE | clk_counter = 5, bit_counter = 1, tx = 0
# Time: 33760000 | State: S_DONE | clk_counter = 6, bit_counter = 1, tx = 0
# Time: 34080000 | State: S_DONE | clk_counter = 7, bit_counter = 1, tx = 0
# Time: 34400000 | State: S_DONE | clk_counter = 8, bit_counter = 1, tx = 0
# Time: 34720000 | State: S_DONE | clk_counter = 9, bit_counter = 1, tx = 0
# Time: 35040000 | State: S_DONE | clk_counter = 10, bit_counter = 1, tx = 0
# Time: 35360000 | State: S_DONE | clk_counter = 11, bit_counter = 1, tx = 0
# Time: 35680000 | State: S_DONE | clk_counter = 12, bit_counter = 1, tx = 0
# Time: 36000000 | State: S_DONE | clk_counter = 13, bit_counter = 1, tx = 0
# Time: 36320000 | State: S_DONE | clk_counter = 0, bit_counter = 0, tx = 1
# Time: 36640000 | State: S_DONE | clk_counter = 1, bit_counter = 0, tx = 1
# Time: 36960000 | State: S_DONE | clk_counter = 2, bit_counter = 0, tx = 1
# Time: 37280000 | State: S_DONE | clk_counter = 3, bit_counter = 0, tx = 1
# Time: 37600000 | State: S_DONE | clk_counter = 4, bit_counter = 0, tx = 1
# Time: 37920000 | State: S_DONE | clk_counter = 5, bit_counter = 0, tx = 1
# Time: 38240000 | State: S_DONE | clk_counter = 6, bit_counter = 0, tx = 1
# Time: 38560000 | State: S_DONE | clk_counter = 7, bit_counter = 0, tx = 1
# Time: 38880000 | State: S_DONE | clk_counter = 8, bit_counter = 0, tx = 1
# Time: 39200000 | State: S_DONE | clk_counter = 9, bit_counter = 0, tx = 1
# Time: 39520000 | State: S_DONE | clk_counter = 10, bit_counter = 0, tx = 1
# Time: 39840000 | State: S_DONE | clk_counter = 11, bit_counter = 0, tx = 1
# Time: 40160000 | State: S_DONE | clk_counter = 12, bit_counter = 0, tx = 1
# Time: 40480000 | State: S_DONE | clk_counter = 13, bit_counter = 0, tx = 1
# Time: 50400000 | State: S_START | clk_counter = 0, bit_counter = 0, tx = 0
# Time: 50720000 | State: S_START | clk_counter = 1, bit_counter = 0, tx = 0
# Time: 51040000 | State: S_START | clk_counter = 2, bit_counter = 0, tx = 0
# Time: 51360000 | State: S_START | clk_counter = 3, bit_counter = 0, tx = 0
# Time: 51680000 | State: S_START | clk_counter = 4, bit_counter = 0, tx = 0
# Time: 52000000 | State: S_START | clk_counter = 5, bit_counter = 0, tx = 0
# Time: 52320000 | State: S_START | clk_counter = 6, bit_counter = 0, tx = 0
# Time: 52640000 | State: S_START | clk_counter = 7, bit_counter = 0, tx = 0
# Time: 52960000 | State: S_START | clk_counter = 8, bit_counter = 0, tx = 0
# Time: 53280000 | State: S_START | clk_counter = 9, bit_counter = 0, tx = 0
# Time: 53600000 | State: S_START | clk_counter = 10, bit_counter = 0, tx = 0
# Time: 53920000 | State: S_START | clk_counter = 11, bit_counter = 0, tx = 0
# Time: 54240000 | State: S_START | clk_counter = 12, bit_counter = 0, tx = 0
# Time: 54560000 | State: S_START | clk_counter = 13, bit_counter = 0, tx = 0
# Time: 54880000 | State: S_DONE | clk_counter = 0, bit_counter = 7, tx = 0
# Time: 55200000 | State: S_DONE | clk_counter = 1, bit_counter = 7, tx = 0
# Time: 55520000 | State: S_DONE | clk_counter = 2, bit_counter = 7, tx = 0
# Time: 55840000 | State: S_DONE | clk_counter = 3, bit_counter = 7, tx = 0
# Time: 56160000 | State: S_DONE | clk_counter = 4, bit_counter = 7, tx = 0
# Time: 56480000 | State: S_DONE | clk_counter = 5, bit_counter = 7, tx = 0
# Time: 56800000 | State: S_DONE | clk_counter = 6, bit_counter = 7, tx = 0
# Time: 57120000 | State: S_DONE | clk_counter = 7, bit_counter = 7, tx = 0
# Time: 57440000 | State: S_DONE | clk_counter = 8, bit_counter = 7, tx = 0
# Time: 57760000 | State: S_DONE | clk_counter = 9, bit_counter = 7, tx = 0
# Time: 58080000 | State: S_DONE | clk_counter = 10, bit_counter = 7, tx = 0
# Time: 58400000 | State: S_DONE | clk_counter = 11, bit_counter = 7, tx = 0
# Time: 58720000 | State: S_DONE | clk_counter = 12, bit_counter = 7, tx = 0
# Time: 59040000 | State: S_DONE | clk_counter = 13, bit_counter = 7, tx = 0
# Time: 59360000 | State: S_DONE | clk_counter = 0, bit_counter = 6, tx = 1
# Time: 59680000 | State: S_DONE | clk_counter = 1, bit_counter = 6, tx = 1
# Time: 60000000 | State: S_DONE | clk_counter = 2, bit_counter = 6, tx = 1
# Time: 60320000 | State: S_DONE | clk_counter = 3, bit_counter = 6, tx = 1
# Time: 60640000 | State: S_DONE | clk_counter = 4, bit_counter = 6, tx = 1
# Time: 60960000 | State: S_DONE | clk_counter = 5, bit_counter = 6, tx = 1
# Time: 61280000 | State: S_DONE | clk_counter = 6, bit_counter = 6, tx = 1
# Time: 61600000 | State: S_DONE | clk_counter = 7, bit_counter = 6, tx = 1
# Time: 61920000 | State: S_DONE | clk_counter = 8, bit_counter = 6, tx = 1
# Time: 62240000 | State: S_DONE | clk_counter = 9, bit_counter = 6, tx = 1
# Time: 62560000 | State: S_DONE | clk_counter = 10, bit_counter = 6, tx = 1
# Time: 62880000 | State: S_DONE | clk_counter = 11, bit_counter = 6, tx = 1
# Time: 63200000 | State: S_DONE | clk_counter = 12, bit_counter = 6, tx = 1
# Time: 63520000 | State: S_DONE | clk_counter = 13, bit_counter = 6, tx = 1
# Time: 63840000 | State: S_DONE | clk_counter = 0, bit_counter = 5, tx = 0
# Time: 64160000 | State: S_DONE | clk_counter = 1, bit_counter = 5, tx = 0
# Time: 64480000 | State: S_DONE | clk_counter = 2, bit_counter = 5, tx = 0
# Time: 64800000 | State: S_DONE | clk_counter = 3, bit_counter = 5, tx = 0
# Time: 65120000 | State: S_DONE | clk_counter = 4, bit_counter = 5, tx = 0
# Time: 65440000 | State: S_DONE | clk_counter = 5, bit_counter = 5, tx = 0
# Time: 65760000 | State: S_DONE | clk_counter = 6, bit_counter = 5, tx = 0
# Time: 66080000 | State: S_DONE | clk_counter = 7, bit_counter = 5, tx = 0
# Time: 66400000 | State: S_DONE | clk_counter = 8, bit_counter = 5, tx = 0
# Time: 66720000 | State: S_DONE | clk_counter = 9, bit_counter = 5, tx = 0
# Time: 67040000 | State: S_DONE | clk_counter = 10, bit_counter = 5, tx = 0
# Time: 67360000 | State: S_DONE | clk_counter = 11, bit_counter = 5, tx = 0
# Time: 67680000 | State: S_DONE | clk_counter = 12, bit_counter = 5, tx = 0
# Time: 68000000 | State: S_DONE | clk_counter = 13, bit_counter = 5, tx = 0
# Time: 68320000 | State: S_DONE | clk_counter = 0, bit_counter = 4, tx = 1
# Time: 68640000 | State: S_DONE | clk_counter = 1, bit_counter = 4, tx = 1
# Time: 68960000 | State: S_DONE | clk_counter = 2, bit_counter = 4, tx = 1
# Time: 69280000 | State: S_DONE | clk_counter = 3, bit_counter = 4, tx = 1
# Time: 69600000 | State: S_DONE | clk_counter = 4, bit_counter = 4, tx = 1
# Time: 69920000 | State: S_DONE | clk_counter = 5, bit_counter = 4, tx = 1
# Time: 70240000 | State: S_DONE | clk_counter = 6, bit_counter = 4, tx = 1
# Time: 70560000 | State: S_DONE | clk_counter = 7, bit_counter = 4, tx = 1
# Time: 70880000 | State: S_DONE | clk_counter = 8, bit_counter = 4, tx = 1
# Time: 71200000 | State: S_DONE | clk_counter = 9, bit_counter = 4, tx = 1
# Time: 71520000 | State: S_DONE | clk_counter = 10, bit_counter = 4, tx = 1
# Time: 71840000 | State: S_DONE | clk_counter = 11, bit_counter = 4, tx = 1
# Time: 72160000 | State: S_DONE | clk_counter = 12, bit_counter = 4, tx = 1
# Time: 72480000 | State: S_DONE | clk_counter = 13, bit_counter = 4, tx = 1
# Time: 72800000 | State: S_DONE | clk_counter = 0, bit_counter = 3, tx = 1
# Time: 73120000 | State: S_DONE | clk_counter = 1, bit_counter = 3, tx = 1
# Time: 73440000 | State: S_DONE | clk_counter = 2, bit_counter = 3, tx = 1
# Time: 73760000 | State: S_DONE | clk_counter = 3, bit_counter = 3, tx = 1
# Time: 74080000 | State: S_DONE | clk_counter = 4, bit_counter = 3, tx = 1
# Time: 74400000 | State: S_DONE | clk_counter = 5, bit_counter = 3, tx = 1
# Time: 74720000 | State: S_DONE | clk_counter = 6, bit_counter = 3, tx = 1
# Time: 75040000 | State: S_DONE | clk_counter = 7, bit_counter = 3, tx = 1
# Time: 75360000 | State: S_DONE | clk_counter = 8, bit_counter = 3, tx = 1
# Time: 75680000 | State: S_DONE | clk_counter = 9, bit_counter = 3, tx = 1
# Time: 76000000 | State: S_DONE | clk_counter = 10, bit_counter = 3, tx = 1
# Time: 76320000 | State: S_DONE | clk_counter = 11, bit_counter = 3, tx = 1
# Time: 76640000 | State: S_DONE | clk_counter = 12, bit_counter = 3, tx = 1
# Time: 76960000 | State: S_DONE | clk_counter = 13, bit_counter = 3, tx = 1
# Time: 77280000 | State: S_DONE | clk_counter = 0, bit_counter = 2, tx = 0
# Time: 77600000 | State: S_DONE | clk_counter = 1, bit_counter = 2, tx = 0
# Time: 77920000 | State: S_DONE | clk_counter = 2, bit_counter = 2, tx = 0
# Time: 78240000 | State: S_DONE | clk_counter = 3, bit_counter = 2, tx = 0
# Time: 78560000 | State: S_DONE | clk_counter = 4, bit_counter = 2, tx = 0
# Time: 78880000 | State: S_DONE | clk_counter = 5, bit_counter = 2, tx = 0
# Time: 79200000 | State: S_DONE | clk_counter = 6, bit_counter = 2, tx = 0
# Time: 79520000 | State: S_DONE | clk_counter = 7, bit_counter = 2, tx = 0
# Time: 79840000 | State: S_DONE | clk_counter = 8, bit_counter = 2, tx = 0
# Time: 80160000 | State: S_DONE | clk_counter = 9, bit_counter = 2, tx = 0
# Time: 80480000 | State: S_DONE | clk_counter = 10, bit_counter = 2, tx = 0
# Time: 80800000 | State: S_DONE | clk_counter = 11, bit_counter = 2, tx = 0
# Time: 81120000 | State: S_DONE | clk_counter = 12, bit_counter = 2, tx = 0
# Time: 81440000 | State: S_DONE | clk_counter = 13, bit_counter = 2, tx = 0
# Time: 81760000 | State: S_DONE | clk_counter = 0, bit_counter = 1, tx = 0
# Time: 82080000 | State: S_DONE | clk_counter = 1, bit_counter = 1, tx = 0
# Time: 82400000 | State: S_DONE | clk_counter = 2, bit_counter = 1, tx = 0
# Time: 82720000 | State: S_DONE | clk_counter = 3, bit_counter = 1, tx = 0
# Time: 83040000 | State: S_DONE | clk_counter = 4, bit_counter = 1, tx = 0
# Time: 83360000 | State: S_DONE | clk_counter = 5, bit_counter = 1, tx = 0
# Time: 83680000 | State: S_DONE | clk_counter = 6, bit_counter = 1, tx = 0
# Time: 84000000 | State: S_DONE | clk_counter = 7, bit_counter = 1, tx = 0
# Time: 84320000 | State: S_DONE | clk_counter = 8, bit_counter = 1, tx = 0
# Time: 84640000 | State: S_DONE | clk_counter = 9, bit_counter = 1, tx = 0
# Time: 84960000 | State: S_DONE | clk_counter = 10, bit_counter = 1, tx = 0
# Time: 85280000 | State: S_DONE | clk_counter = 11, bit_counter = 1, tx = 0
# Time: 85600000 | State: S_DONE | clk_counter = 12, bit_counter = 1, tx = 0
# Time: 85920000 | State: S_DONE | clk_counter = 13, bit_counter = 1, tx = 0
# Time: 86240000 | State: S_DONE | clk_counter = 0, bit_counter = 0, tx = 1
# Time: 86560000 | State: S_DONE | clk_counter = 1, bit_counter = 0, tx = 1
# Time: 86880000 | State: S_DONE | clk_counter = 2, bit_counter = 0, tx = 1
# Time: 87200000 | State: S_DONE | clk_counter = 3, bit_counter = 0, tx = 1
# Time: 87520000 | State: S_DONE | clk_counter = 4, bit_counter = 0, tx = 1
# Time: 87840000 | State: S_DONE | clk_counter = 5, bit_counter = 0, tx = 1
# Time: 88160000 | State: S_DONE | clk_counter = 6, bit_counter = 0, tx = 1
# Time: 88480000 | State: S_DONE | clk_counter = 7, bit_counter = 0, tx = 1
# Time: 88800000 | State: S_DONE | clk_counter = 8, bit_counter = 0, tx = 1
# Time: 89120000 | State: S_DONE | clk_counter = 9, bit_counter = 0, tx = 1
# Time: 89440000 | State: S_DONE | clk_counter = 10, bit_counter = 0, tx = 1
# Time: 89760000 | State: S_DONE | clk_counter = 11, bit_counter = 0, tx = 1
# Time: 90080000 | State: S_DONE | clk_counter = 12, bit_counter = 0, tx = 1
# Time: 90400000 | State: S_DONE | clk_counter = 13, bit_counter = 0, tx = 1
# Time: 100320000 | State: S_START | clk_counter = 0, bit_counter = 0, tx = 0
# Time: 100640000 | State: S_START | clk_counter = 1, bit_counter = 0, tx = 0
# Time: 100960000 | State: S_START | clk_counter = 2, bit_counter = 0, tx = 0
# Time: 101280000 | State: S_START | clk_counter = 3, bit_counter = 0, tx = 0
# Time: 101600000 | State: S_START | clk_counter = 4, bit_counter = 0, tx = 0
# Time: 101920000 | State: S_START | clk_counter = 5, bit_counter = 0, tx = 0
# Time: 102240000 | State: S_START | clk_counter = 6, bit_counter = 0, tx = 0
# Time: 102560000 | State: S_START | clk_counter = 7, bit_counter = 0, tx = 0
# Time: 102880000 | State: S_START | clk_counter = 8, bit_counter = 0, tx = 0
# Time: 103200000 | State: S_START | clk_counter = 9, bit_counter = 0, tx = 0
# Time: 103520000 | State: S_START | clk_counter = 10, bit_counter = 0, tx = 0
# Time: 103840000 | State: S_START | clk_counter = 11, bit_counter = 0, tx = 0
# Time: 104160000 | State: S_START | clk_counter = 12, bit_counter = 0, tx = 0
# Time: 104480000 | State: S_START | clk_counter = 13, bit_counter = 0, tx = 0
# Time: 104800000 | State: S_DONE | clk_counter = 0, bit_counter = 7, tx = 0
# Time: 105120000 | State: S_DONE | clk_counter = 1, bit_counter = 7, tx = 0
# Time: 105440000 | State: S_DONE | clk_counter = 2, bit_counter = 7, tx = 0
# Time: 105760000 | State: S_DONE | clk_counter = 3, bit_counter = 7, tx = 0
# Time: 106080000 | State: S_DONE | clk_counter = 4, bit_counter = 7, tx = 0
# Time: 106400000 | State: S_DONE | clk_counter = 5, bit_counter = 7, tx = 0
# Time: 106720000 | State: S_DONE | clk_counter = 6, bit_counter = 7, tx = 0
# Time: 107040000 | State: S_DONE | clk_counter = 7, bit_counter = 7, tx = 0
# Time: 107360000 | State: S_DONE | clk_counter = 8, bit_counter = 7, tx = 0
# Time: 107680000 | State: S_DONE | clk_counter = 9, bit_counter = 7, tx = 0
# Time: 108000000 | State: S_DONE | clk_counter = 10, bit_counter = 7, tx = 0
# Time: 108320000 | State: S_DONE | clk_counter = 11, bit_counter = 7, tx = 0
# Time: 108640000 | State: S_DONE | clk_counter = 12, bit_counter = 7, tx = 0
# Time: 108960000 | State: S_DONE | clk_counter = 13, bit_counter = 7, tx = 0
# Time: 109280000 | State: S_DONE | clk_counter = 0, bit_counter = 6, tx = 1
# Time: 109600000 | State: S_DONE | clk_counter = 1, bit_counter = 6, tx = 1
# Time: 109920000 | State: S_DONE | clk_counter = 2, bit_counter = 6, tx = 1
# Time: 110240000 | State: S_DONE | clk_counter = 3, bit_counter = 6, tx = 1
# Time: 110560000 | State: S_DONE | clk_counter = 4, bit_counter = 6, tx = 1
# Time: 110880000 | State: S_DONE | clk_counter = 5, bit_counter = 6, tx = 1
# Time: 111200000 | State: S_DONE | clk_counter = 6, bit_counter = 6, tx = 1
# Time: 111520000 | State: S_DONE | clk_counter = 7, bit_counter = 6, tx = 1
# Time: 111840000 | State: S_DONE | clk_counter = 8, bit_counter = 6, tx = 1
# Time: 112160000 | State: S_DONE | clk_counter = 9, bit_counter = 6, tx = 1
# Time: 112480000 | State: S_DONE | clk_counter = 10, bit_counter = 6, tx = 1
# Time: 112800000 | State: S_DONE | clk_counter = 11, bit_counter = 6, tx = 1
# Time: 113120000 | State: S_DONE | clk_counter = 12, bit_counter = 6, tx = 1
# Time: 113440000 | State: S_DONE | clk_counter = 13, bit_counter = 6, tx = 1
# Time: 113760000 | State: S_DONE | clk_counter = 0, bit_counter = 5, tx = 0
# Time: 114080000 | State: S_DONE | clk_counter = 1, bit_counter = 5, tx = 0
# Time: 114400000 | State: S_DONE | clk_counter = 2, bit_counter = 5, tx = 0
# Time: 114720000 | State: S_DONE | clk_counter = 3, bit_counter = 5, tx = 0
# Time: 115040000 | State: S_DONE | clk_counter = 4, bit_counter = 5, tx = 0
# Time: 115360000 | State: S_DONE | clk_counter = 5, bit_counter = 5, tx = 0
# Time: 115680000 | State: S_DONE | clk_counter = 6, bit_counter = 5, tx = 0
# Time: 116000000 | State: S_DONE | clk_counter = 7, bit_counter = 5, tx = 0
# Time: 116320000 | State: S_DONE | clk_counter = 8, bit_counter = 5, tx = 0
# Time: 116640000 | State: S_DONE | clk_counter = 9, bit_counter = 5, tx = 0
# Time: 116960000 | State: S_DONE | clk_counter = 10, bit_counter = 5, tx = 0
# Time: 117280000 | State: S_DONE | clk_counter = 11, bit_counter = 5, tx = 0
# Time: 117600000 | State: S_DONE | clk_counter = 12, bit_counter = 5, tx = 0
# Time: 117920000 | State: S_DONE | clk_counter = 13, bit_counter = 5, tx = 0
# Time: 118240000 | State: S_DONE | clk_counter = 0, bit_counter = 4, tx = 1
# Time: 118560000 | State: S_DONE | clk_counter = 1, bit_counter = 4, tx = 1
# Time: 118880000 | State: S_DONE | clk_counter = 2, bit_counter = 4, tx = 1
# Time: 119200000 | State: S_DONE | clk_counter = 3, bit_counter = 4, tx = 1
# Time: 119520000 | State: S_DONE | clk_counter = 4, bit_counter = 4, tx = 1
# Time: 119840000 | State: S_DONE | clk_counter = 5, bit_counter = 4, tx = 1
# Time: 120160000 | State: S_DONE | clk_counter = 6, bit_counter = 4, tx = 1
# Time: 120480000 | State: S_DONE | clk_counter = 7, bit_counter = 4, tx = 1
# Time: 120800000 | State: S_DONE | clk_counter = 8, bit_counter = 4, tx = 1
# Time: 121120000 | State: S_DONE | clk_counter = 9, bit_counter = 4, tx = 1
# Time: 121440000 | State: S_DONE | clk_counter = 10, bit_counter = 4, tx = 1
# Time: 121760000 | State: S_DONE | clk_counter = 11, bit_counter = 4, tx = 1
# Time: 122080000 | State: S_DONE | clk_counter = 12, bit_counter = 4, tx = 1
# Time: 122400000 | State: S_DONE | clk_counter = 13, bit_counter = 4, tx = 1
# Time: 122720000 | State: S_DONE | clk_counter = 0, bit_counter = 3, tx = 0
# Time: 123040000 | State: S_DONE | clk_counter = 1, bit_counter = 3, tx = 0
# Time: 123360000 | State: S_DONE | clk_counter = 2, bit_counter = 3, tx = 0
# Time: 123680000 | State: S_DONE | clk_counter = 3, bit_counter = 3, tx = 0
# Time: 124000000 | State: S_DONE | clk_counter = 4, bit_counter = 3, tx = 0
